C:\Users\Fra\workspace\ROSAgentFirst\src\main\Main.java
C:\Users\Fra\workspace\ROSAgentFirst\src\agents\John.java
C:\Users\Fra\workspace\ROSAgentFirst\src\websocket\WSTest.java
C:\Users\Fra\workspace\ROSAgentFirst\src\resources\Resource.java
C:\Users\Fra\workspace\ROSAgentFirst\src\agents\Behav.java
